4 RStudioを用いた地理情報解析の基礎 – 自然地理学特説II
…
setwd("~/Documents/PG2/4/")

dem <- rast('dem_tokyo.tif')

# 欲しい市区の名称
city_names <- c("武蔵野市", "杉並区", "中野区", "新宿区", 
            "文京区", "千代田区", "台東区", "墨田区")

# 都道府県のJISコードを確認する
# 東京は13
jpnprefs |> print(n = 20)
## # A tibble: 47 × 11
##    jis_code prefecture capital      region major_island prefecture_en capital_en
##    <chr>    <fct>      <chr>        <chr>  <chr>        <chr>         <chr>     
##  1 01       北海道     札幌市       北海道 北海道       Hokkaido      Sapporo-s…
##  2 02       青森県     青森市       東北   本州         Aomori-ken    Aomori-shi
##  3 03       岩手県     盛岡市       東北   本州         Iwate-ken     Morioka-s…
##  4 04       宮城県     仙台市       東北   本州         Miyagi-ken    Sendai-shi
##  5 05       秋田県     秋田市       東北   本州         Akita-ken     Akita-shi 
##  6 06       山形県     山形市       東北   本州         Yamagata-ken  Yamagata-…
##  7 07       福島県     福島市       東北   本州         Fukushima-ken Fukushima…
##  8 08       茨城県     水戸市       関東   本州         Ibaraki-ken   Mito-shi  
##  9 09       栃木県     宇都宮市     関東   本州         Tochigi-ken   Utsunomiy…
## 10 10       群馬県     前橋市       関東   本州         Gunma-ken     Maebashi-…
## 11 11       埼玉県     さいたま市   関東   本州         Saitama-ken   Saitama-s…
## 12 12       千葉県     千葉市       関東   本州         Chiba-ken     Chiba-shi 
## 13 13       東京都     新宿区 （東京23区）… 関東   本州         Tokyo-to      Shinjuku-…
## 14 14       神奈川県   横浜市       関東   本州         Kanagawa-ken  Yokohama-…
## 15 15       新潟県     新潟市       中部   本州         Niigata-ken   Niigata-s…
## 16 16       富山県     富山市       中部   本州         Toyama-ken    Toyama-shi
## 17 17       石川県     金沢市       中部   本州         Ishikawa-ken  Kanazawa-…
## 18 18       福井県     福井市       中部   本州         Fukui-ken     Fukui-shi 
## 19 19       山梨県     甲府市       中部   本州         Yamanashi-ken Kofu-shi  
## 20 20       長野県     長野市       中部   本州         Nagano-ken    Nagano-shi
## # ℹ 27 more rows
## # ℹ 4 more variables: region_en <chr>, major_island_en <chr>,
## #   capital_latitude <dbl>, capital_longitude <dbl>
…
# DEMデータと市区名ラスターを結合し、データフレームに変える
dem_city <- c(dem, cities_raster) |>
  as_tibble() |> # データフレームに変換
  mutate(city = factor(city, levels = city_names)) |> # 表示順をcity_namesの順番にする
  drop_na()

dem_city 
## # A tibble: 4,069,252 × 2
##    dem_tokyo city  
##        <dbl> <fct> 
##  1         0 墨田区
##  2         0 墨田区
##  3         0 墨田区
##  4         0 墨田区
##  5         0 墨田区
##  6         0 墨田区
##  7         0 墨田区
##  8         0 墨田区
##  9         0 墨田区
## 10         0 墨田区
## # ℹ 4,069,242 more rows
…
